module gitlab.com/wangzhuan/xconf

go 1.12

require (
	github.com/coreos/etcd v3.3.13+incompatible // indirect
	github.com/hashicorp/hcl v1.0.0
	github.com/json-iterator/go v1.1.6 // indirect
	github.com/magiconair/properties v1.8.1
	github.com/modern-go/concurrent v0.0.0-20180306012644-bacd9c7ef1dd // indirect
	github.com/modern-go/reflect2 v1.0.1 // indirect
	github.com/pelletier/go-toml v1.4.0
	github.com/pkg/errors v0.8.0
	github.com/shima-park/agollo v1.0.4
	github.com/spf13/jwalterweatherman v1.1.0
	github.com/spf13/viper v1.4.0
	github.com/stretchr/testify v1.2.2
	github.com/xordataexchange/crypt v0.0.3-0.20170626215501-b2862e3d0a77
	gopkg.in/yaml.v2 v2.2.2
)

replace golang.org/x/mobile => github.com/golang/mobile v0.0.0-20190607214518-6fa95d984e88

replace golang.org/x/image => github.com/golang/image v0.0.0-20190622003408-7e034cad6442

replace google.golang.org/api => github.com/googleapis/google-api-go-client v0.7.0

replace golang.org/x/exp => github.com/golang/exp v0.0.0-20190627132806-fd42eb6b336f

replace golang.org/x/oauth2 => github.com/golang/oauth2 v0.0.0-20190604053449-0f29369cfe45

replace google.golang.org/genproto => github.com/google/go-genproto v0.0.0-20190701230453-710ae3a149df

replace cloud.google.com/go => github.com/googleapis/google-cloud-go v0.41.0

replace google.golang.org/appengine => github.com/golang/appengine v1.6.1

replace golang.org/x/lint => github.com/golang/lint v0.0.0-20190409202823-959b441ac422

replace google.golang.org/grpc => github.com/grpc/grpc-go v1.21.1

replace golang.org/x/time => github.com/golang/time v0.0.0-20190308202827-9d24e82272b4

replace golang.org/x/net => github.com/golang/net v0.0.0-20190227160552-c95aed5357e7

replace golang.org/x/crypto => github.com/golang/crypto v0.0.0-20190228050851-31a38585487a

replace golang.org/x/sys => github.com/golang/sys v0.0.0-20190228071610-92a0ff1e1e2f

replace golang.org/x/text => github.com/golang/text v0.3.2

replace golang.org/x/tools => github.com/golang/tools v0.0.0-20190520220859-26647e34d3c0

replace golang.org/x/sync => github.com/golang/sync v0.0.0-20190423024810-112230192c58
