module xgit.xiaoniangao.cn/xngo/lib/xconf/v2

go 1.17

require (
	github.com/antonfisher/nested-logrus-formatter v1.3.1
	github.com/sirupsen/logrus v1.4.2
	github.com/stretchr/testify v1.7.1
	xgit.xiaoniangao.cn/xngo/lib/github.com-apolloconfig-agollo v1.1.1
	xgit.xiaoniangao.cn/xngo/lib/github.com-spf13-viper v1.11.0
)

require (
	github.com/davecgh/go-spew v1.1.1 // indirect
	github.com/fsnotify/fsnotify v1.5.1 // indirect
	github.com/hashicorp/hcl v1.0.0 // indirect
	github.com/konsorten/go-windows-terminal-sequences v1.0.1 // indirect
	github.com/magiconair/properties v1.8.6 // indirect
	github.com/mitchellh/mapstructure v1.4.3 // indirect
	github.com/pelletier/go-toml v1.9.4 // indirect
	github.com/pelletier/go-toml/v2 v2.0.0-beta.8 // indirect
	github.com/pmezard/go-difflib v1.0.0 // indirect
	github.com/spf13/afero v1.8.2 // indirect
	github.com/spf13/cast v1.4.1 // indirect
	github.com/spf13/pflag v1.0.5 // indirect
	github.com/subosito/gotenv v1.2.0 // indirect
	golang.org/x/sys v0.0.0-20220412211240-33da011f77ad // indirect
	golang.org/x/text v0.3.7 // indirect
	gopkg.in/ini.v1 v1.66.4 // indirect
	gopkg.in/yaml.v2 v2.4.0 // indirect
	gopkg.in/yaml.v3 v3.0.0-20210107192922-496545a6307b // indirect
)

//replace xgit.xiaoniangao.cn/xngo/lib/github.com-apolloconfig-agollo => ../../github.com-apolloconfig-agollo

//replace xgit.xiaoniangao.cn/xngo/lib/github.com-spf13-viper => ../../github.com-spf13-viper
